%feature("docstring") gum::BayesNet
"
BayesNet represents a Bayesian network.

BayesNet(name='') -> BayesNet
    Parameters:
      * **name** (*str*) -- the name of the Bayes Net

BayesNet(source) -> BayesNet
    Parameters:
      * **source** (*pyAgrum.BayesNet*) -- the Bayesian network to copy
"

%feature("docstring") gum::BayesNet::add
"
Add a variable to the pyAgrum.BayesNet.

Parameters
----------
variable : pyAgrum.DiscreteVariable
	the variable added
descr : str
	the description of the variable (following :ref:`fast syntax<Quick specification of (randomly parameterized) graphical models>`)
nbrmod : int
	the number of modalities for the new variable
id : int
	the variable forced id in the pyAgrum.BayesNet

Returns
-------
int
	the id of the new node

Raises
------
pyAgrum.DuplicateLabel
    If variable.name() or id is already used in this pyAgrum.BayesNet.
pyAgrum.NotAllowed
    If nbrmod is less than 2
"

%feature("docstring") gum::BayesNet::addAMPLITUDE
"
Others aggregators

Parameters
----------
variable : pyAgrum.DiscreteVariable
	the variable to be added

Returns
-------
int
	the id of the added value
"

%feature("docstring") gum::BayesNet::addAND
"
Add a variable, it's associate node and an AND implementation.

The id of the new variable is automatically generated.

Parameters
----------
variable : pyAgrum.DiscreteVariable
	The variable added by copy.

Returns
-------
int
	the id of the added variable.

Raises
------
pyAgrum.SizeError
    If variable.domainSize()>2
"

%feature("docstring") gum::BayesNet::addArc
"
Add an arc in the BN, and update arc.head's CPT.

Parameters
----------
head : Union[int,str]
	a variable's id (int) or name
head : Union[int,str]
	a variable's id (int) or name

Raises
------
pyAgrum.InvalidEdge
    If arc.tail and/or arc.head are not in the BN.
pyAgrum.DuplicateElement
    If the arc already exists.
"

%feature("docstring") gum::BayesNet::addCOUNT
"
Others aggregators

Parameters
----------
variable : pyAgrum.DiscreteVariable
	the variable to be added

Returns
-------
int
	the id of the added value
"

%feature("docstring") gum::BayesNet::addEXISTS
"
Others aggregators

Parameters
----------
variable : pyAgrum.DiscreteVariable
	the variable to be added

Returns
-------
int
	the id of the added value
"

%feature("docstring") gum::BayesNet::addFORALL
"
Others aggregators

Parameters
----------
variable : pyAgrum.DiscreteVariable
	the variable to be added

Returns
-------
int
	the id of the added variable.
"

%feature("docstring") gum::BayesNet::addLogit
"
Add a variable, its associate node and a Logit implementation.

(The id of the new variable can be automatically generated.)

Parameters
----------
variable : pyAgrum.DiscreteVariable
	The variable added by copy
externalWeight : float
	the added external weight
id : int
	The proposed id for the variable.
Returns
-------
int
	the id of the added variable.

Raises
------
pyAgrum.DuplicateElement
    If id is already used
"

%feature("docstring") gum::BayesNet::addMAX
"
Others aggregators

Parameters
----------
variable : pyAgrum.DiscreteVariable
	the variable to be added

Returns
-------
int
	the id of the added value
"

%feature("docstring") gum::BayesNet::addMEDIAN
"
Others aggregators

Parameters
----------
variable : pyAgrum.DiscreteVariable
	the variable to be added

Returns
-------
int
	the id of the added value
"

%feature("docstring") gum::BayesNet::addMIN
"
Others aggregators

Parameters
----------
variable : pyAgrum.DiscreteVariable
	the variable to be added

Returns
-------
int
	the id of the added value
"

%feature("docstring") gum::BayesNet::addSUM
"
Others aggregators

Parameters
----------
variable : pyAgrum.DiscreteVariable
        the variable to be added

Returns
-------
int
        the id of the added value
"

%feature("docstring") gum::BayesNet::addNoisyAND
"
Add a variable, its associate node and a noisyAND implementation.

(The id of the new variable can be automatically generated.)

Parameters
----------
variable : pyAgrum.DiscreteVariable
	The variable added by copy
externalWeight : float
	the added external weight
id : int
	The proposed id for the variable.

Returns
-------
int
	the id of the added variable.

Raises
------
pyAgrum.DuplicateElement
    If id is already used
"

%feature("docstring") gum::BayesNet::addNoisyOR
"
Add a variable, it's associate node and a noisyOR implementation.

Since it seems that the 'classical' noisyOR is the Compound noisyOR, we keep the addNoisyOR as an alias for addNoisyORCompound.

(The id of the new variable can be automatically generated.)

Parameters
----------
variable : pyAgrum.DiscreteVariable
	The variable added by copy
externalWeight : float
	the added external weight
id : int
	The proposed id for the variable.

Returns
-------
int
	the id of the added variable.

Raises
--------
pyAgrum.DuplicateElement
    If id is already used
"

%feature("docstring") gum::BayesNet::addNoisyORCompound
"
Add a variable, it's associate node and a noisyOR implementation.

Since it seems that the 'classical' noisyOR is the Compound noisyOR, we keep the addNoisyOR as an alias for addNoisyORCompound.

(The id of the new variable can be automatically generated.)

Parameters
----------
variable : pyAgrum.DiscreteVariable
	The variable added by copy
externalWeight : float
	the added external weight
id : int
	The proposed id for the variable.

Returns
-------
int
	the id of the added variable.

Raises
--------
pyAgrum.DuplicateElement
    If id is already used
"

%feature("docstring") gum::BayesNet::addNoisyORNet
"
Add a variable, its associate node and a noisyOR implementation.

Since it seems that the 'classical' noisyOR is the Compound noisyOR, we keep the addNoisyOR as an alias for addNoisyORCompound.

(The id of the new variable can be automatically generated.)

Parameters
----------
variable : pyAgrum.DiscreteVariable
	The variable added by copy
externalWeight : float
	the added external weight
id : int
	The proposed id for the variable.

Returns
-------
int
	the id of the added variable.
"

%feature("docstring") gum::BayesNet::addOR
"
Add a variable, it's associate node and an OR implementation.

The id of the new variable is automatically generated.

Warnings
--------
	If parents are not boolean, all value>1 is True

Parameters
----------
variable : pyAgrum.DiscreteVariable
	The variable added by copy

Returns
-------
int
	the id of the added variable.

Raises
------
pyAgrum.SizeError
    If variable.domainSize()>2
"

%feature("docstring") gum::BayesNet::addWeightedArc
"
Add an arc in the BN, and update arc.head's CPT.

Parameters
----------
head : Union[int,str]
	a variable's id (int) or name
tail : Union[int,str]
	a variable's id (int) or name
causalWeight : float
	the added causal weight

Raises
------
pyAgrum.InvalidArc
    If arc.tail and/or arc.head are not in the BN.
pyAgrum.InvalidArc
    If variable in arc.head is not a NoisyOR variable.
"

%feature("docstring") gum::BayesNet::beginTopologyTransformation
"
When inserting/removing arcs, node CPTs change their dimension with a cost in time.
begin Multiple Change for all CPTs
These functions delay the CPTs change to be done just once at the end of a sequence of topology modification, begins a sequence of insertions/deletions of arcs without changing the dimensions of the CPTs.
"

%feature("docstring") gum::BayesNet::changePotential
"
change the CPT associated to nodeId to newPot delete the old CPT associated to nodeId.

Parameters
----------
var : Union[int,str]
	the current name or the id of the variable
newPot : pyAgrum.Potential
	the new potential

Raises
------
pyAgrum.NotAllowed
    If newPot has not the same signature as __probaMap[NodeId]
"

%feature("docstring") gum::BayesNet::changeVariableName
"
Changes a variable's name in the gum::BayesNet.

This will change the gum::DiscreteVariable names in the gum::BayesNet.

Parameters
----------
var : Union[int,str]
	the current name or the id of the variable
new_name : str
	the new name of the variable

Raises
------
pyAgrum.DuplicateLabel
    If new_name is already used in this BayesNet.
pyAgrum.NotFound
    If no variable matches id.
"

%feature("docstring") gum::BayesNet::changeVariableLabel
"
change the label of the variable associated to nodeId to the new value.

Parameters
----------
var : Union[int,str]
	the current name or the id of the variable
old_label : str
	the new label
new_label : str
	the new label

Raises
------
pyAgrum.NotFound
    if id/name is not a variable or if old_label does not exist.
"

%feature("docstring") gum::BayesNet::endTopologyTransformation
"
Terminates a sequence of insertions/deletions of arcs by adjusting all CPTs dimensions.
End Multiple Change for all CPTs.

Returns
-------
pyAgrum.BayesNet
"

%feature("docstring") gum::BayesNet::clear
"
Clear the whole BayesNet
"

%feature("docstring") gum::BayesNet::erase
"
Remove a variable from the gum::BayesNet.

Removes the corresponding variable from the gum::BayesNet and from all of it's children gum::Potential.

If no variable matches the given id, then nothing is done.

Parameters
----------
var : Union[int,str,pyAgrum.DiscreteVariable]
	the current name, the id of the variable or a reference to the variable
"

%feature("docstring") gum::BayesNet::eraseArc
"
Removes an arc in the BN, and update head's CTP.

If (tail, head) doesn't exist, the nothing happens.

Parameters
----------
arc : pyAgrum.Arc when calling eraseArc(arc)
	The arc to be removed.
head : Union[int,str]
	a variable's id (int) or name for the head when calling eraseArc(head,tail)
tail : Union[int,str]
	a variable's id (int) or name for the tail when calling eraseArc(head,tail)
"

%feature("docstring") gum::BayesNet::fastPrototype
"
Create a Bayesian network with a dot-like syntax which specifies:
    - the structure 'a->b->c;b->d<-e;'.
    - the type of the variables with different syntax:

      - by default, a variable is a pyAgrum.RangeVariable using the default domain size ([2])
      - with 'a[10]', the variable is a pyAgrum.RangeVariable using 10 as domain size (from 0 to 9)
      - with 'a[3,7]', the variable is a pyAgrum.RangeVariable using a domainSize from 3 to 7
      - with 'a[1,3.14,5,6.2]', the variable is a pyAgrum.DiscretizedVariable using the given ticks (at least 3 values)
      - with 'a{top|middle|bottom}', the variable is a pyAgrum.LabelizedVariable using the given labels.
      - with 'a{-1|5|0|3}', the variable is a pyAgrum.IntegerVariable using the sorted given values.
      - with 'a{-0.5|5.01|0|3.1415}', the variable is a pyAgrum.NumericalDiscreteVariable using the sorted given values.

Note
----
  - If the dot-like string contains such a specification more than once for a variable, the first specification will be used.
  - the CPTs are randomly generated.
  - see also pyAgrum.fastBN.

Examples
--------
>>> import pyAgrum as gum
>>> bn=pyAgrum.BayesNet.fastPrototype('A->B[1,3]<-C{yes|No}->D[2,4]<-E[1,2.5,3.9]',6)

Parameters
----------
dotlike : str
        the string containing the specification
domainSize : int
        the default domain size for variables

Returns
-------
pyAgrum.BayesNet
        the resulting Bayesian network
"

%feature("docstring") gum::BayesNet::generateCPT
"
Randomly generate CPT for a given node in a given structure.

Parameters
----------
node : Union[int,str]
	a variable's id (int) or name
"

%feature("docstring") gum::BayesNet::generateCPTs
"
Randomly generates CPTs for a given structure.
"

%feature("docstring") gum::BayesNet::loadBIF
"
Load a BIF file.

Parameters
----------
name : str
	the file's name
l : list
	list of functions to execute

Raises
--------
pyAgrum.IOError
    If file not found
pyAgrum.FatalError
    If file is not valid
"

%feature("docstring") gum::BayesNet::loadBIFXML
"
Load a BIFXML file.

Parameters
----------
name : str
	the name's file
l : list
	list of functions to execute

Raises
------
pyAgrum.IOError
    If file not found
pyAgrum.FatalError
    If file is not valid
"

%feature("docstring") gum::BayesNet::loadDSL
"
Load a DSL file.

Parameters
----------
name : str
	the file's name
l : list
	list of functions to execute

Raises
------
pyAgrum.IOError
    If file not found
pyAgrum.FatalError
    If file is not valid
"

%feature("docstring") gum::BayesNet::loadNET
"
Load a NET file.

Parameters
----------
name : str
	the name's file
l : list
	list of functions to execute

Raises
------
pyAgrum.IOError
    If file not found
pyAgrum.FatalError
    If file is not valid
"

%feature("docstring") gum::BayesNet::loadO3PRM
"
Load an O3PRM file.

Warnings
--------
The O3PRM language is the only language allowing to manipulate not only DiscretizedVariable but also RangeVariable and LabelizedVariable.

Parameters
----------
name : str
	the file's name
system : str
	the system's name
classpath : str
	the classpath
l : list
	list of functions to execute

Raises
------
pyAgrum.IOError
    If file not found
pyAgrum.FatalError
    If file is not valid
"

%feature("docstring") gum::BayesNet::loadUAI
"
Load an UAI file.

Parameters
----------
name : str
	the name's file
l : list
	list of functions to execute

Raises
------
pyAgrum.IOError
    If file not found
pyAgrum.FatalError
    If file is not valid
"

%feature("docstring") gum::BayesNet::reverseArc
"
Reverses an arc while preserving the same joint distribution.

Parameters
----------
tail
	(int) the id of the tail variable
head
	(int) the id of the head variable
tail
	(str) the name of the tail variable
head
	(str) the name of the head variable
arc : pyAgrum.Arc
	an arc

Raises
------
pyAgrum.InvalidArc
    If the arc does not exsit or if its reversal would induce a directed cycle.
"

%feature("docstring") gum::BayesNet::saveBIF
"
Save the BayesNet in a BIF file.

Parameters
----------
name : str
	the file's name
allowModificationWhenSaving: bool
        False by default.
        if true, syntax errors are corrected when saving the file. If false, they throw a FatalError.
"

%feature("docstring") gum::BayesNet::saveBIFXML
"
Save the BayesNet in a BIFXML file.

Parameters
----------
name : str
	the file's name
allowModificationWhenSaving: bool
        False by default.
        if true, syntax errors are corrected when saving the file. If false, they throw a FatalError.
"

%feature("docstring") gum::BayesNet::saveDSL
"
Save the BayesNet in a DSL file.

Parameters
----------
name : str
	the file's name
allowModificationWhenSaving: bool
        False by default.
        if true, syntax errors are corrected when saving the file. If false, they throw a FatalError.
"

%feature("docstring") gum::BayesNet::saveNET
"
Save the BayesNet in a NET file.

Parameters
----------
name : str
	the file's name
allowModificationWhenSaving: bool
        False by default.
        if true, syntax errors are corrected when saving the file. If false, they throw a FatalError.
"

%feature("docstring") gum::BayesNet::saveO3PRM
"
Save the BayesNet in an O3PRM file.

Warnings
--------
The O3PRM language is the only language allowing to manipulate not only DiscretizedVariable but also RangeVariable and LabelizedVariable.

Parameters
----------
name : str
	the file's name
allowModificationWhenSaving: bool
        False by default.
        if true, syntax errors are corrected when saving the file. If false, they throw a FatalError.
"

%feature("docstring") gum::BayesNet::saveUAI
"
Save the BayesNet in an UAI file.

Parameters
----------
name : str
	the file's name
allowModificationWhenSaving: bool
        False by default.
        if true, syntax errors are corrected when saving the file. If false, they throw a FatalError.
"

%feature("docstring") gum::BayesNet::cpt
"
Returns the CPT of a variable.

Parameters
----------
VarId :  Union[int,str]
	a variable's id (int) or name

Returns
-------
pyAgrum.Potential
	The variable's CPT.

Raises
------
pyAgrum.NotFound
    If no variable's id matches varId.
"
